{
    "current_page": 1,
    "total_pages": 10,
    "total_items": 150,
    "records": [
                     {
                     "university_image": "https://s3.us-east-2.amazonaws.com/route-dev/images/universities_sm/University_of_Wisconsin-Badgers.png",
                     "created_at": "2015-6-08T10:12:03-04:00",
                     "description": "University is an institution which is rightly considered one of the greatest contributions of the peoples of Europe to the world's cultural heritage.",
                     "university_name": "Wisconsin"
                     },
                     {
                     "university_image": "https://s3.us-east-2.amazonaws.com/route-dev/images/universities_sm/University_of_Southern_Mississippi-Golden_Eagles.png",
                     "created_at": "2017-10-01T10:19:03-04:00",
                     "description": "University is an institution which is rightly considered one of the greatest contributions of the peoples of Europe to the world's cultural heritage.",
                     "university_name": "Southern Mississippi"
                     },
                     {
                     "university_image": "https://s3.us-east-2.amazonaws.com/route-dev/images/universities_sm/Stanford_University-Cardinal.png",
                     "created_at": "2014-10-01T10:19:03-04:00",
                     "description": "University is an institution which is rightly considered one of the greatest contributions of the peoples of Europe to the world's cultural heritage.",
                     "university_name": "Stanford"
                     },
                     {
                     "university_image": "https://s3.us-east-2.amazonaws.com/route-dev/images/universities_sm/Syracuse_University-Orange.png",
                     "created_at": "2017-10-21T10:19:03-04:00",
                     "description": "University is an institution which is rightly considered one of the greatest contributions of the peoples of Europe to the world's cultural heritage.",
                     "university_name": "Syracuse"
                     },
                     {
                     "university_image": "https://s3.us-east-2.amazonaws.com/route-dev/images/universities_sm/Temple_University-Owls.png",
                     "created_at": "2017-3-05T10:19:03-04:00",
                     "description": "University is an institution which is rightly considered one of the greatest contributions of the peoples of Europe to the world's cultural heritage.",
                     "university_name": "Temple"
                     },
                     {
                     "university_image": "https://s3.us-east-2.amazonaws.com/route-dev/images/universities_sm/University_of_Tennessee-Volunteers.png",
                     "created_at": "2017-10-09T10:19:03-04:00",
                     "description": "University is an institution which is rightly considered one of the greatest contributions of the peoples of Europe to the world's cultural heritage.",
                     "university_name": "Tennessee"
                     },
                     {
                     "university_image": "https://s3.us-east-2.amazonaws.com/route-dev/images/universities_sm/University_of_Texas-Longhorns.png",
                     "created_at": "2017-11-03T10:19:03-04:00",
                     "description": "University is an institution which is rightly considered one of the greatest contributions of the peoples of Europe to the world's cultural heritage.",
                     "university_name": "Texas"
                     },
                     {
                     "university_image": "https://s3.us-east-2.amazonaws.com/route-dev/images/universities_sm/Texas_A&M_University-Aggies.png",
                     "created_at": "2012-12-01T10:19:03-04:00",
                     "description": "University is an institution which is rightly considered one of the greatest contributions of the peoples of Europe to the world's cultural heritage.",
                     "university_name": "Texas A&M"
                     },
                     {
                     "university_image": "https://s3.us-east-2.amazonaws.com/route-dev/images/universities_sm/Texas_Christian_University-Horned_Frogs.png",
                     "created_at": "2016-12-11T10:19:03-04:00",
                     "description": "University is an institution which is rightly considered one of the greatest contributions of the peoples of Europe to the world's cultural heritage.",
                     "university_name": "Texas Christian"
                     },
                     {
                     "university_image": "https://s3.us-east-2.amazonaws.com/route-dev/images/universities_sm/University_of_Texas_El_Paso-Miners.png",
                     "created_at": "2014-12-17T10:19:03-04:00",
                     "description": "University is an institution which is rightly considered one of the greatest contributions of the peoples of Europe to the world's cultural heritage.",
                     "university_name": "Texas El Paso"
                     },
                     {
                     "university_image": "https://s3.us-east-2.amazonaws.com/route-dev/images/universities_sm/University_of_Texas_San_Antonio-Roadrunners.png",
                     "created_at": "2011-04-27T10:19:03-04:00",
                     "description": "University is an institution which is rightly considered one of the greatest contributions of the peoples of Europe to the world's cultural heritage.",
                     "university_name": "Texas San Antonio"
                     },
                     {
                     "university_image": "https://s3.us-east-2.amazonaws.com/route-dev/images/universities_sm/Texas_State_University-Bobcats.png",
                     "created_at": "2005-11-21T10:19:03-04:00",
                     "description": "University is an institution which is rightly considered one of the greatest contributions of the peoples of Europe to the world's cultural heritage.",
                     "university_name": "Texas State"
                     },
                     {
                     "university_image": "https://s3.us-east-2.amazonaws.com/route-dev/images/universities_sm/Texas_Tech_University-Red_Raiders.png",
                     "created_at": "2001-04-01T10:19:03-04:00",
                     "description": "University is an institution which is rightly considered one of the greatest contributions of the peoples of Europe to the world's cultural heritage.",
                     "university_name": "Texas Tech"
                     },
                     {
                     "university_image": "https://s3.us-east-2.amazonaws.com/route-dev/images/universities_sm/University_of_Toledo-Rockets.png",
                     "created_at": "2003-03-01T10:19:03-04:00",
                     "description": "University is an institution which is rightly considered one of the greatest contributions of the peoples of Europe to the world's cultural heritage.",
                     "university_name": "Toledo"
                     },
                     {
                     "university_image": "https://s3.us-east-2.amazonaws.com/route-dev/images/universities_sm/Troy_University-Trojans.png",
                     "created_at": "2004-01-01T10:19:03-04:00",
                     "description": "University is an institution which is rightly considered one of the greatest contributions of the peoples of Europe to the world's cultural heritage.",
                     "university_name": "Troy"
                     }
                     ]
}
